^D:\ANDRA\AN 2\SABOTOR\SABOTEURGAME\ACTIONS.CPP
/c /I"D:\ANDRA\AN 2\SABOTOR\SABOTEURGAME\BIN\($CONFIGURATION)\($PLATFORM)\\" /AI"D:\ANDRA\AN 2\SABOTOR\SABOTEURGAME\BIN\($CONFIGURATION)\($PLATFORM)\\" /ZI /JMC /nologo /W3 /WX- /diagnostics:classic /sdl- /Od /D _MBCS /Gm- /EHsc /RTC1 /MDd /GS /fp:precise /permissive- /Zc:wchar_t /Zc:forScope /Zc:inline /std:c++latest /experimental:module /Fo"X64\DEBUG\\" /Fd"X64\DEBUG\VC141.PDB" /Gd /TP /FC  /module:stdIfcDir "C:\Program Files (x86)\Microsoft Visual Studio\2017\Community\VC\Tools\MSVC\14.15.26726\ifc\x64" D:\ANDRA\AN 2\SABOTOR\SABOTEURGAME\ACTIONS.CPP
^D:\ANDRA\AN 2\SABOTOR\SABOTEURGAME\CARDS.CPP
/c /I"D:\ANDRA\AN 2\SABOTOR\SABOTEURGAME\BIN\($CONFIGURATION)\($PLATFORM)\\" /AI"D:\ANDRA\AN 2\SABOTOR\SABOTEURGAME\BIN\($CONFIGURATION)\($PLATFORM)\\" /ZI /JMC /nologo /W3 /WX- /diagnostics:classic /sdl- /Od /D _MBCS /Gm- /EHsc /RTC1 /MDd /GS /fp:precise /permissive- /Zc:wchar_t /Zc:forScope /Zc:inline /std:c++latest /experimental:module /Fo"X64\DEBUG\\" /Fd"X64\DEBUG\VC141.PDB" /Gd /TP /FC  /module:stdIfcDir "C:\Program Files (x86)\Microsoft Visual Studio\2017\Community\VC\Tools\MSVC\14.15.26726\ifc\x64" D:\ANDRA\AN 2\SABOTOR\SABOTEURGAME\CARDS.CPP
^D:\ANDRA\AN 2\SABOTOR\SABOTEURGAME\GOLD.CPP
/c /I"D:\ANDRA\AN 2\SABOTOR\SABOTEURGAME\BIN\($CONFIGURATION)\($PLATFORM)\\" /AI"D:\ANDRA\AN 2\SABOTOR\SABOTEURGAME\BIN\($CONFIGURATION)\($PLATFORM)\\" /ZI /JMC /nologo /W3 /WX- /diagnostics:classic /sdl- /Od /D _MBCS /Gm- /EHsc /RTC1 /MDd /GS /fp:precise /permissive- /Zc:wchar_t /Zc:forScope /Zc:inline /std:c++latest /experimental:module /Fo"X64\DEBUG\\" /Fd"X64\DEBUG\VC141.PDB" /Gd /TP /FC  /module:stdIfcDir "C:\Program Files (x86)\Microsoft Visual Studio\2017\Community\VC\Tools\MSVC\14.15.26726\ifc\x64" D:\ANDRA\AN 2\SABOTOR\SABOTEURGAME\GOLD.CPP
^D:\ANDRA\AN 2\SABOTOR\SABOTEURGAME\MAIN.CPP
/c /I"D:\ANDRA\AN 2\SABOTOR\SABOTEURGAME\BIN\($CONFIGURATION)\($PLATFORM)\\" /AI"D:\ANDRA\AN 2\SABOTOR\SABOTEURGAME\BIN\($CONFIGURATION)\($PLATFORM)\\" /ZI /JMC /nologo /W3 /WX- /diagnostics:classic /sdl- /Od /D _MBCS /Gm- /EHsc /RTC1 /MDd /GS /fp:precise /permissive- /Zc:wchar_t /Zc:forScope /Zc:inline /std:c++latest /experimental:module /Fo"X64\DEBUG\\" /Fd"X64\DEBUG\VC141.PDB" /Gd /TP /FC  /module:stdIfcDir "C:\Program Files (x86)\Microsoft Visual Studio\2017\Community\VC\Tools\MSVC\14.15.26726\ifc\x64" D:\ANDRA\AN 2\SABOTOR\SABOTEURGAME\MAIN.CPP
^D:\ANDRA\AN 2\SABOTOR\SABOTEURGAME\PLAYER.CPP
/c /I"D:\ANDRA\AN 2\SABOTOR\SABOTEURGAME\BIN\($CONFIGURATION)\($PLATFORM)\\" /AI"D:\ANDRA\AN 2\SABOTOR\SABOTEURGAME\BIN\($CONFIGURATION)\($PLATFORM)\\" /ZI /JMC /nologo /W3 /WX- /diagnostics:classic /sdl- /Od /D _MBCS /Gm- /EHsc /RTC1 /MDd /GS /fp:precise /permissive- /Zc:wchar_t /Zc:forScope /Zc:inline /std:c++latest /experimental:module /Fo"X64\DEBUG\\" /Fd"X64\DEBUG\VC141.PDB" /Gd /TP /FC  /module:stdIfcDir "C:\Program Files (x86)\Microsoft Visual Studio\2017\Community\VC\Tools\MSVC\14.15.26726\ifc\x64" D:\ANDRA\AN 2\SABOTOR\SABOTEURGAME\PLAYER.CPP
^D:\ANDRA\AN 2\SABOTOR\SABOTEURGAME\PLAYERTYPE.CPP
/c /I"D:\ANDRA\AN 2\SABOTOR\SABOTEURGAME\BIN\($CONFIGURATION)\($PLATFORM)\\" /AI"D:\ANDRA\AN 2\SABOTOR\SABOTEURGAME\BIN\($CONFIGURATION)\($PLATFORM)\\" /ZI /JMC /nologo /W3 /WX- /diagnostics:classic /sdl- /Od /D _MBCS /Gm- /EHsc /RTC1 /MDd /GS /fp:precise /permissive- /Zc:wchar_t /Zc:forScope /Zc:inline /std:c++latest /experimental:module /Fo"X64\DEBUG\\" /Fd"X64\DEBUG\VC141.PDB" /Gd /TP /FC  /module:stdIfcDir "C:\Program Files (x86)\Microsoft Visual Studio\2017\Community\VC\Tools\MSVC\14.15.26726\ifc\x64" D:\ANDRA\AN 2\SABOTOR\SABOTEURGAME\PLAYERTYPE.CPP
^D:\ANDRA\AN 2\SABOTOR\SABOTEURGAME\ROAD.CPP
/c /I"D:\ANDRA\AN 2\SABOTOR\SABOTEURGAME\BIN\($CONFIGURATION)\($PLATFORM)\\" /AI"D:\ANDRA\AN 2\SABOTOR\SABOTEURGAME\BIN\($CONFIGURATION)\($PLATFORM)\\" /ZI /JMC /nologo /W3 /WX- /diagnostics:classic /sdl- /Od /D _MBCS /Gm- /EHsc /RTC1 /MDd /GS /fp:precise /permissive- /Zc:wchar_t /Zc:forScope /Zc:inline /std:c++latest /experimental:module /Fo"X64\DEBUG\\" /Fd"X64\DEBUG\VC141.PDB" /Gd /TP /FC  /module:stdIfcDir "C:\Program Files (x86)\Microsoft Visual Studio\2017\Community\VC\Tools\MSVC\14.15.26726\ifc\x64" D:\ANDRA\AN 2\SABOTOR\SABOTEURGAME\ROAD.CPP
^D:\ANDRA\AN 2\SABOTOR\SABOTEURGAME\SABOTEURGAME.CPP
/c /I"D:\ANDRA\AN 2\SABOTOR\SABOTEURGAME\BIN\($CONFIGURATION)\($PLATFORM)\\" /AI"D:\ANDRA\AN 2\SABOTOR\SABOTEURGAME\BIN\($CONFIGURATION)\($PLATFORM)\\" /ZI /JMC /nologo /W3 /WX- /diagnostics:classic /sdl- /Od /D _MBCS /Gm- /EHsc /RTC1 /MDd /GS /fp:precise /permissive- /Zc:wchar_t /Zc:forScope /Zc:inline /std:c++latest /experimental:module /Fo"X64\DEBUG\\" /Fd"X64\DEBUG\VC141.PDB" /Gd /TP /FC  /module:stdIfcDir "C:\Program Files (x86)\Microsoft Visual Studio\2017\Community\VC\Tools\MSVC\14.15.26726\ifc\x64" D:\ANDRA\AN 2\SABOTOR\SABOTEURGAME\SABOTEURGAME.CPP
^D:\ANDRA\AN 2\SABOTOR\SABOTEURGAME\TUTORIAL.CPP
/c /I"D:\ANDRA\AN 2\SABOTOR\SABOTEURGAME\BIN\($CONFIGURATION)\($PLATFORM)\\" /AI"D:\ANDRA\AN 2\SABOTOR\SABOTEURGAME\BIN\($CONFIGURATION)\($PLATFORM)\\" /ZI /JMC /nologo /W3 /WX- /diagnostics:classic /sdl- /Od /D _MBCS /Gm- /EHsc /RTC1 /MDd /GS /fp:precise /permissive- /Zc:wchar_t /Zc:forScope /Zc:inline /std:c++latest /experimental:module /Fo"X64\DEBUG\\" /Fd"X64\DEBUG\VC141.PDB" /Gd /TP /FC  /module:stdIfcDir "C:\Program Files (x86)\Microsoft Visual Studio\2017\Community\VC\Tools\MSVC\14.15.26726\ifc\x64" D:\ANDRA\AN 2\SABOTOR\SABOTEURGAME\TUTORIAL.CPP
^D:\ANDRA\AN 2\SABOTOR\SABOTEURGAME\UNUSEDCARDS.CPP
/c /I"D:\ANDRA\AN 2\SABOTOR\SABOTEURGAME\BIN\($CONFIGURATION)\($PLATFORM)\\" /AI"D:\ANDRA\AN 2\SABOTOR\SABOTEURGAME\BIN\($CONFIGURATION)\($PLATFORM)\\" /ZI /JMC /nologo /W3 /WX- /diagnostics:classic /sdl- /Od /D _MBCS /Gm- /EHsc /RTC1 /MDd /GS /fp:precise /permissive- /Zc:wchar_t /Zc:forScope /Zc:inline /std:c++latest /experimental:module /Fo"X64\DEBUG\\" /Fd"X64\DEBUG\VC141.PDB" /Gd /TP /FC  /module:stdIfcDir "C:\Program Files (x86)\Microsoft Visual Studio\2017\Community\VC\Tools\MSVC\14.15.26726\ifc\x64" D:\ANDRA\AN 2\SABOTOR\SABOTEURGAME\UNUSEDCARDS.CPP
^D:\ANDRA\AN 2\SABOTOR\SABOTEURGAME\CARDINALE.CPP
/c /I"D:\ANDRA\AN 2\SABOTOR\SABOTEURGAME\BIN\($CONFIGURATION)\($PLATFORM)\\" /AI"D:\ANDRA\AN 2\SABOTOR\SABOTEURGAME\BIN\($CONFIGURATION)\($PLATFORM)\\" /ZI /JMC /nologo /W3 /WX- /diagnostics:classic /sdl- /Od /D _MBCS /Gm- /EHsc /RTC1 /MDd /GS /fp:precise /permissive- /Zc:wchar_t /Zc:forScope /Zc:inline /std:c++latest /experimental:module /Fo"X64\DEBUG\\" /Fd"X64\DEBUG\VC141.PDB" /Gd /TP /FC  /module:stdIfcDir "C:\Program Files (x86)\Microsoft Visual Studio\2017\Community\VC\Tools\MSVC\14.15.26726\ifc\x64" D:\ANDRA\AN 2\SABOTOR\SABOTEURGAME\CARDINALE.CPP
^D:\ANDRA\AN 2\SABOTOR\SABOTEURGAME\BOARD.CPP
/c /I"D:\ANDRA\AN 2\SABOTOR\SABOTEURGAME\BIN\($CONFIGURATION)\($PLATFORM)\\" /AI"D:\ANDRA\AN 2\SABOTOR\SABOTEURGAME\BIN\($CONFIGURATION)\($PLATFORM)\\" /ZI /JMC /nologo /W3 /WX- /diagnostics:classic /sdl- /Od /D _MBCS /Gm- /EHsc /RTC1 /MDd /GS /fp:precise /permissive- /Zc:wchar_t /Zc:forScope /Zc:inline /std:c++latest /experimental:module /Fo"X64\DEBUG\\" /Fd"X64\DEBUG\VC141.PDB" /Gd /TP /FC  /module:stdIfcDir "C:\Program Files (x86)\Microsoft Visual Studio\2017\Community\VC\Tools\MSVC\14.15.26726\ifc\x64" D:\ANDRA\AN 2\SABOTOR\SABOTEURGAME\BOARD.CPP
