﻿  SaboteurGame.cpp
c:\users\teodora\desktop\edvj\saboteurgame\saboteurgame.cpp(20): warning C4715: 'getPlayer': not all control paths return a value
  SaboteurGame.vcxproj -> C:\Users\Teodora\Desktop\edvj\SaboteurGame\bin\x64\Debug\SaboteurGame.exe
