^D:\ANDRA\AN 2\SABOTOR\LOGGING\X64\DEBUG\LOGGING.OBJ
D:\ANDRA\AN 2\SABOTOR\SABOTEURGAME\X64\DEBUG\LOGGING.ILK
D:\ANDRA\AN 2\SABOTOR\SABOTEURGAME\X64\DEBUG\LOGGING.DLL
D:\ANDRA\AN 2\SABOTOR\SABOTEURGAME\X64\DEBUG\LOGGING.PDB
