^C:\USERS\TEODORA\DESKTOP\EDVJ\SABOTEURGAME\ACTIONS.CPP|C:\USERS\TEODORA\DESKTOP\EDVJ\SABOTEURGAME\BOARD.CPP|C:\USERS\TEODORA\DESKTOP\EDVJ\SABOTEURGAME\CARDINALE.CPP|C:\USERS\TEODORA\DESKTOP\EDVJ\SABOTEURGAME\CARDS.CPP|C:\USERS\TEODORA\DESKTOP\EDVJ\SABOTEURGAME\GOLD.CPP|C:\USERS\TEODORA\DESKTOP\EDVJ\SABOTEURGAME\MAIN.CPP|C:\USERS\TEODORA\DESKTOP\EDVJ\SABOTEURGAME\PLAYER.CPP|C:\USERS\TEODORA\DESKTOP\EDVJ\SABOTEURGAME\PLAYERTYPE.CPP|C:\USERS\TEODORA\DESKTOP\EDVJ\SABOTEURGAME\ROAD.CPP|C:\USERS\TEODORA\DESKTOP\EDVJ\SABOTEURGAME\SABOTEURGAME.CPP|C:\USERS\TEODORA\DESKTOP\EDVJ\SABOTEURGAME\TUTORIAL.CPP|C:\USERS\TEODORA\DESKTOP\EDVJ\SABOTEURGAME\UNUSEDCARDS.CPP
C:\USERS\TEODORA\DESKTOP\EDVJ\SABOTEURGAME\BIN\X64\DEBUG\ACTIONS.NATIVECODEANALYSIS.XML
C:\USERS\TEODORA\DESKTOP\EDVJ\SABOTEURGAME\BIN\X64\DEBUG\BOARD.NATIVECODEANALYSIS.XML
C:\USERS\TEODORA\DESKTOP\EDVJ\SABOTEURGAME\BIN\X64\DEBUG\CARDINALE.NATIVECODEANALYSIS.XML
C:\USERS\TEODORA\DESKTOP\EDVJ\SABOTEURGAME\BIN\X64\DEBUG\CARDS.NATIVECODEANALYSIS.XML
C:\USERS\TEODORA\DESKTOP\EDVJ\SABOTEURGAME\BIN\X64\DEBUG\GOLD.NATIVECODEANALYSIS.XML
C:\USERS\TEODORA\DESKTOP\EDVJ\SABOTEURGAME\BIN\X64\DEBUG\MAIN.NATIVECODEANALYSIS.XML
C:\USERS\TEODORA\DESKTOP\EDVJ\SABOTEURGAME\BIN\X64\DEBUG\PLAYER.NATIVECODEANALYSIS.XML
C:\USERS\TEODORA\DESKTOP\EDVJ\SABOTEURGAME\BIN\X64\DEBUG\PLAYERTYPE.NATIVECODEANALYSIS.XML
C:\USERS\TEODORA\DESKTOP\EDVJ\SABOTEURGAME\BIN\X64\DEBUG\ROAD.NATIVECODEANALYSIS.XML
C:\USERS\TEODORA\DESKTOP\EDVJ\SABOTEURGAME\BIN\X64\DEBUG\SABOTEURGAME.NATIVECODEANALYSIS.XML
C:\USERS\TEODORA\DESKTOP\EDVJ\SABOTEURGAME\BIN\X64\DEBUG\TUTORIAL.NATIVECODEANALYSIS.XML
C:\USERS\TEODORA\DESKTOP\EDVJ\SABOTEURGAME\BIN\X64\DEBUG\UNUSEDCARDS.NATIVECODEANALYSIS.XML
C:\USERS\TEODORA\DESKTOP\EDVJ\SABOTEURGAME\BIN\X64\DEBUG\VC141.PDB
C:\USERS\TEODORA\DESKTOP\EDVJ\SABOTEURGAME\BIN\X64\DEBUG\VC141.IDB
C:\USERS\TEODORA\DESKTOP\EDVJ\SABOTEURGAME\BIN\X64\DEBUG\UNUSEDCARDS.OBJ
C:\USERS\TEODORA\DESKTOP\EDVJ\SABOTEURGAME\BIN\X64\DEBUG\TUTORIAL.OBJ
C:\USERS\TEODORA\DESKTOP\EDVJ\SABOTEURGAME\BIN\X64\DEBUG\SABOTEURGAME.OBJ
C:\USERS\TEODORA\DESKTOP\EDVJ\SABOTEURGAME\BIN\X64\DEBUG\ROAD.OBJ
C:\USERS\TEODORA\DESKTOP\EDVJ\SABOTEURGAME\BIN\X64\DEBUG\PLAYERTYPE.OBJ
C:\USERS\TEODORA\DESKTOP\EDVJ\SABOTEURGAME\BIN\X64\DEBUG\PLAYER.OBJ
C:\USERS\TEODORA\DESKTOP\EDVJ\SABOTEURGAME\BIN\X64\DEBUG\MAIN.OBJ
C:\USERS\TEODORA\DESKTOP\EDVJ\SABOTEURGAME\BIN\X64\DEBUG\GOLD.OBJ
C:\USERS\TEODORA\DESKTOP\EDVJ\SABOTEURGAME\BIN\X64\DEBUG\CARDS.OBJ
C:\USERS\TEODORA\DESKTOP\EDVJ\SABOTEURGAME\BIN\X64\DEBUG\CARDINALE.OBJ
C:\USERS\TEODORA\DESKTOP\EDVJ\SABOTEURGAME\BIN\X64\DEBUG\BOARD.OBJ
C:\USERS\TEODORA\DESKTOP\EDVJ\SABOTEURGAME\BIN\X64\DEBUG\ACTIONS.OBJ
^C:\USERS\TEODORA\DESKTOP\EDVJ\SABOTEURGAME\ACTIONS.CPP
C:\USERS\TEODORA\DESKTOP\EDVJ\SABOTEURGAME\BIN\X64\DEBUG\VC141.PDB
^C:\USERS\TEODORA\DESKTOP\EDVJ\SABOTEURGAME\BOARD.CPP
C:\USERS\TEODORA\DESKTOP\EDVJ\SABOTEURGAME\BIN\X64\DEBUG\VC141.PDB
^C:\USERS\TEODORA\DESKTOP\EDVJ\SABOTEURGAME\CARDINALE.CPP
C:\USERS\TEODORA\DESKTOP\EDVJ\SABOTEURGAME\BIN\X64\DEBUG\VC141.PDB
^C:\USERS\TEODORA\DESKTOP\EDVJ\SABOTEURGAME\CARDS.CPP
C:\USERS\TEODORA\DESKTOP\EDVJ\SABOTEURGAME\BIN\X64\DEBUG\VC141.PDB
^C:\USERS\TEODORA\DESKTOP\EDVJ\SABOTEURGAME\GOLD.CPP
C:\USERS\TEODORA\DESKTOP\EDVJ\SABOTEURGAME\BIN\X64\DEBUG\VC141.PDB
^C:\USERS\TEODORA\DESKTOP\EDVJ\SABOTEURGAME\MAIN.CPP
C:\USERS\TEODORA\DESKTOP\EDVJ\SABOTEURGAME\BIN\X64\DEBUG\VC141.PDB
^C:\USERS\TEODORA\DESKTOP\EDVJ\SABOTEURGAME\PLAYER.CPP
C:\USERS\TEODORA\DESKTOP\EDVJ\SABOTEURGAME\BIN\X64\DEBUG\VC141.PDB
^C:\USERS\TEODORA\DESKTOP\EDVJ\SABOTEURGAME\PLAYERTYPE.CPP
C:\USERS\TEODORA\DESKTOP\EDVJ\SABOTEURGAME\BIN\X64\DEBUG\VC141.PDB
^C:\USERS\TEODORA\DESKTOP\EDVJ\SABOTEURGAME\ROAD.CPP
C:\USERS\TEODORA\DESKTOP\EDVJ\SABOTEURGAME\BIN\X64\DEBUG\VC141.PDB
^C:\USERS\TEODORA\DESKTOP\EDVJ\SABOTEURGAME\TUTORIAL.CPP
C:\USERS\TEODORA\DESKTOP\EDVJ\SABOTEURGAME\BIN\X64\DEBUG\VC141.PDB
^C:\USERS\TEODORA\DESKTOP\EDVJ\SABOTEURGAME\SABOTEURGAME.CPP|C:\USERS\TEODORA\DESKTOP\EDVJ\SABOTEURGAME\UNUSEDCARDS.CPP
C:\USERS\TEODORA\DESKTOP\EDVJ\SABOTEURGAME\BIN\X64\DEBUG\VC141.PDB
C:\USERS\TEODORA\DESKTOP\EDVJ\SABOTEURGAME\BIN\X64\DEBUG\VC141.IDB
C:\USERS\TEODORA\DESKTOP\EDVJ\SABOTEURGAME\BIN\X64\DEBUG\UNUSEDCARDS.OBJ
C:\USERS\TEODORA\DESKTOP\EDVJ\SABOTEURGAME\BIN\X64\DEBUG\SABOTEURGAME.OBJ
^C:\USERS\TEODORA\DESKTOP\EDVJ\SABOTEURGAME\UNUSEDCARDS.CPP
C:\USERS\TEODORA\DESKTOP\EDVJ\SABOTEURGAME\BIN\X64\DEBUG\VC141.PDB
^C:\USERS\TEODORA\DESKTOP\EDVJ\SABOTEURGAME\SABOTEURGAME.CPP
C:\USERS\TEODORA\DESKTOP\EDVJ\SABOTEURGAME\BIN\X64\DEBUG\VC141.PDB
C:\USERS\TEODORA\DESKTOP\EDVJ\SABOTEURGAME\BIN\X64\DEBUG\VC141.IDB
C:\USERS\TEODORA\DESKTOP\EDVJ\SABOTEURGAME\BIN\X64\DEBUG\SABOTEURGAME.OBJ
